\BOOKMARK [0][-]{chapter.1}{Electricidad}{}% 1
\BOOKMARK [1][-]{section.1.1}{Cargas puntuales}{chapter.1}% 2
\BOOKMARK [1][-]{section.1.2}{Distribuciones cont\355nuas de carga}{chapter.1}% 3
\BOOKMARK [1][-]{section.1.3}{Ley de Gauss}{chapter.1}% 4
\BOOKMARK [1][-]{section.1.4}{Potencial el\351ctrico}{chapter.1}% 5
\BOOKMARK [1][-]{section.1.5}{Capacitancia}{chapter.1}% 6
\BOOKMARK [1][-]{section.1.6}{Corriente, resistencia y voltaje}{chapter.1}% 7
\BOOKMARK [1][-]{section.1.7}{Circuitos en corriente continua}{chapter.1}% 8
\BOOKMARK [1][-]{section.1.8}{Circuitos en corriente alterna \(Avanzado\)}{chapter.1}% 9
\BOOKMARK [0][-]{chapter.2}{Magnetismo}{}% 10
\BOOKMARK [1][-]{section.2.1}{Campo y fuerza magn\351tica}{chapter.2}% 11
\BOOKMARK [1][-]{section.2.2}{Fuentes de campo magn\351tico}{chapter.2}% 12
\BOOKMARK [1][-]{section.2.3}{Ley de Amp\350re}{chapter.2}% 13
\BOOKMARK [1][-]{section.2.4}{Ley de inducci\363n de Faraday}{chapter.2}% 14
\BOOKMARK [0][-]{chapter.3}{Ondas electromagn\351ticas}{}% 15
\BOOKMARK [0][-]{chapter.4}{\323ptica }{}% 16
\BOOKMARK [1][-]{section.4.1}{\323ptica geom\351trica}{chapter.4}% 17
\BOOKMARK [1][-]{section.4.2}{\323ptica f\355sica \(Avanzado\)}{chapter.4}% 18
\BOOKMARK [0][-]{chapter.5}{Respuestas}{}% 19
\BOOKMARK [1][-]{section.5.1}{Electricidad}{chapter.5}% 20
\BOOKMARK [2][-]{subsection.5.1.1}{Cargas puntuales}{section.5.1}% 21
\BOOKMARK [2][-]{subsection.5.1.2}{Distribuciones cont\355nuas de cara}{section.5.1}% 22
\BOOKMARK [2][-]{subsection.5.1.3}{Ley de Gauss}{section.5.1}% 23
\BOOKMARK [2][-]{subsection.5.1.4}{Potencial el\351ctrico}{section.5.1}% 24
\BOOKMARK [2][-]{subsection.5.1.5}{Capacitancia}{section.5.1}% 25
\BOOKMARK [2][-]{subsection.5.1.6}{Corriente, resistencia y voltaje}{section.5.1}% 26
\BOOKMARK [2][-]{subsection.5.1.7}{Circuitos en corriente continua}{section.5.1}% 27
\BOOKMARK [2][-]{subsection.5.1.8}{Circuitos en corriente alterna}{section.5.1}% 28
\BOOKMARK [1][-]{section.5.2}{Magnetismo}{chapter.5}% 29
\BOOKMARK [2][-]{subsection.5.2.1}{Campo y fuerza magn\351tica}{section.5.2}% 30
\BOOKMARK [2][-]{subsection.5.2.2}{Fuentes de campo magn\351tico}{section.5.2}% 31
\BOOKMARK [2][-]{subsection.5.2.3}{Ley de Amp\350re}{section.5.2}% 32
\BOOKMARK [2][-]{subsection.5.2.4}{Ley de inducci\363n de Faraday}{section.5.2}% 33
\BOOKMARK [1][-]{section.5.3}{Ondas electromagn\351ticas}{chapter.5}% 34
\BOOKMARK [1][-]{section.5.4}{\323ptica}{chapter.5}% 35
\BOOKMARK [2][-]{subsection.5.4.1}{\323ptica geom\351trica}{section.5.4}% 36
\BOOKMARK [2][-]{subsection.5.4.2}{\323ptica f\355sica}{section.5.4}% 37
