\relax 
\providecommand\hyper@newdestlabel[2]{}
\@writefile{toc}{\contentsline {chapter}{\numberline {1}Electricidad}{1}{chapter.1}}
\@writefile{lof}{\addvspace {10\p@ }}
\@writefile{lot}{\addvspace {10\p@ }}
\@writefile{toc}{\contentsline {section}{\numberline {1.1}Cargas puntuales}{1}{section.1.1}}
\@writefile{toc}{\contentsline {section}{\numberline {1.2}Distribuciones cont\IeC {\'\i }nuas de carga}{3}{section.1.2}}
\@writefile{toc}{\contentsline {section}{\numberline {1.3}Ley de Gauss}{7}{section.1.3}}
\@writefile{toc}{\contentsline {section}{\numberline {1.4}Potencial el\IeC {\'e}ctrico}{10}{section.1.4}}
\@writefile{toc}{\contentsline {section}{\numberline {1.5}Capacitancia}{11}{section.1.5}}
\@writefile{toc}{\contentsline {section}{\numberline {1.6}Corriente, resistencia y voltaje}{12}{section.1.6}}
\@writefile{toc}{\contentsline {section}{\numberline {1.7}Circuitos en corriente continua}{13}{section.1.7}}
\@writefile{toc}{\contentsline {section}{\numberline {1.8}Circuitos en corriente alterna ($\textsl  {Avanzado}$)}{15}{section.1.8}}
\@setckpt{codigofuente/capitulo1}{
\setcounter{page}{17}
\setcounter{equation}{0}
\setcounter{enumi}{6}
\setcounter{enumii}{3}
\setcounter{enumiii}{0}
\setcounter{enumiv}{0}
\setcounter{footnote}{0}
\setcounter{mpfootnote}{0}
\setcounter{part}{0}
\setcounter{chapter}{1}
\setcounter{section}{8}
\setcounter{subsection}{0}
\setcounter{subsubsection}{0}
\setcounter{paragraph}{0}
\setcounter{subparagraph}{0}
\setcounter{figure}{0}
\setcounter{table}{0}
\setcounter{parentequation}{0}
\setcounter{AM@survey}{0}
\setcounter{float@type}{4}
\setcounter{Item}{40}
\setcounter{Hfootnote}{0}
\setcounter{bookmark@seq@number}{9}
\setcounter{LT@tables}{0}
\setcounter{LT@chunks}{0}
\setcounter{subfigure}{0}
\setcounter{lofdepth}{1}
\setcounter{subtable}{0}
\setcounter{lotdepth}{1}
\setcounter{section@level}{0}
}
