\relax 
\providecommand\hyper@newdestlabel[2]{}
\@writefile{toc}{\contentsline {chapter}{\numberline {2}Magnetismo}{17}{chapter.2}}
\@writefile{lof}{\addvspace {10\p@ }}
\@writefile{lot}{\addvspace {10\p@ }}
\@writefile{toc}{\contentsline {section}{\numberline {2.1}Campo y fuerza magn\IeC {\'e}tica}{17}{section.2.1}}
\@writefile{toc}{\contentsline {section}{\numberline {2.2}Fuentes de campo magn\IeC {\'e}tico}{19}{section.2.2}}
\@writefile{toc}{\contentsline {section}{\numberline {2.3}Ley de Amp\IeC {\`e}re}{20}{section.2.3}}
\@writefile{toc}{\contentsline {section}{\numberline {2.4}Ley de inducci\IeC {\'o}n de Faraday}{22}{section.2.4}}
\@setckpt{codigofuente/capitulo2}{
\setcounter{page}{23}
\setcounter{equation}{0}
\setcounter{enumi}{2}
\setcounter{enumii}{3}
\setcounter{enumiii}{0}
\setcounter{enumiv}{0}
\setcounter{footnote}{0}
\setcounter{mpfootnote}{0}
\setcounter{part}{0}
\setcounter{chapter}{2}
\setcounter{section}{4}
\setcounter{subsection}{0}
\setcounter{subsubsection}{0}
\setcounter{paragraph}{0}
\setcounter{subparagraph}{0}
\setcounter{figure}{0}
\setcounter{table}{0}
\setcounter{parentequation}{0}
\setcounter{AM@survey}{0}
\setcounter{float@type}{4}
\setcounter{Item}{46}
\setcounter{Hfootnote}{0}
\setcounter{bookmark@seq@number}{14}
\setcounter{LT@tables}{0}
\setcounter{LT@chunks}{0}
\setcounter{subfigure}{0}
\setcounter{lofdepth}{1}
\setcounter{subtable}{0}
\setcounter{lotdepth}{1}
\setcounter{section@level}{0}
}
