\relax 
\providecommand\hyper@newdestlabel[2]{}
\@writefile{toc}{\contentsline {chapter}{\numberline {5}Respuestas}{25}{chapter.5}}
\@writefile{lof}{\addvspace {10\p@ }}
\@writefile{lot}{\addvspace {10\p@ }}
\@writefile{toc}{\contentsline {section}{\numberline {5.1}Electricidad}{25}{section.5.1}}
\@writefile{toc}{\contentsline {subsection}{\numberline {5.1.1}Cargas puntuales}{25}{subsection.5.1.1}}
\@writefile{toc}{\contentsline {subsection}{\numberline {5.1.2}Distribuciones cont\IeC {\'\i }nuas de cara}{26}{subsection.5.1.2}}
\@writefile{toc}{\contentsline {subsection}{\numberline {5.1.3}Ley de Gauss}{27}{subsection.5.1.3}}
\@writefile{toc}{\contentsline {subsection}{\numberline {5.1.4}Potencial el\IeC {\'e}ctrico}{28}{subsection.5.1.4}}
\@writefile{toc}{\contentsline {subsection}{\numberline {5.1.5}Capacitancia}{29}{subsection.5.1.5}}
\@writefile{toc}{\contentsline {subsection}{\numberline {5.1.6}Corriente, resistencia y voltaje}{30}{subsection.5.1.6}}
\@writefile{toc}{\contentsline {subsection}{\numberline {5.1.7}Circuitos en corriente continua}{31}{subsection.5.1.7}}
\@writefile{toc}{\contentsline {subsection}{\numberline {5.1.8}Circuitos en corriente alterna}{32}{subsection.5.1.8}}
\@writefile{toc}{\contentsline {section}{\numberline {5.2}Magnetismo}{35}{section.5.2}}
\@writefile{toc}{\contentsline {subsection}{\numberline {5.2.1}Campo y fuerza magn\IeC {\'e}tica}{35}{subsection.5.2.1}}
\@writefile{toc}{\contentsline {subsection}{\numberline {5.2.2}Fuentes de campo magn\IeC {\'e}tico}{36}{subsection.5.2.2}}
\@writefile{toc}{\contentsline {subsection}{\numberline {5.2.3}Ley de Amp\IeC {\`e}re}{37}{subsection.5.2.3}}
\@writefile{toc}{\contentsline {subsection}{\numberline {5.2.4}Ley de inducci\IeC {\'o}n de Faraday}{38}{subsection.5.2.4}}
\@writefile{toc}{\contentsline {section}{\numberline {5.3}Ondas electromagn\IeC {\'e}ticas}{39}{section.5.3}}
\@writefile{toc}{\contentsline {section}{\numberline {5.4}\IeC {\'O}ptica}{40}{section.5.4}}
\@writefile{toc}{\contentsline {subsection}{\numberline {5.4.1}\IeC {\'O}ptica geom\IeC {\'e}trica}{41}{subsection.5.4.1}}
\@writefile{toc}{\contentsline {subsection}{\numberline {5.4.2}\IeC {\'O}ptica f\IeC {\'\i }sica}{42}{subsection.5.4.2}}
\@setckpt{codigofuente/respuestas}{
\setcounter{page}{43}
\setcounter{equation}{0}
\setcounter{enumi}{1}
\setcounter{enumii}{3}
\setcounter{enumiii}{0}
\setcounter{enumiv}{0}
\setcounter{footnote}{0}
\setcounter{mpfootnote}{0}
\setcounter{part}{0}
\setcounter{chapter}{5}
\setcounter{section}{4}
\setcounter{subsection}{2}
\setcounter{subsubsection}{0}
\setcounter{paragraph}{0}
\setcounter{subparagraph}{0}
\setcounter{figure}{0}
\setcounter{table}{0}
\setcounter{parentequation}{0}
\setcounter{AM@survey}{0}
\setcounter{float@type}{4}
\setcounter{Item}{91}
\setcounter{Hfootnote}{0}
\setcounter{bookmark@seq@number}{37}
\setcounter{LT@tables}{0}
\setcounter{LT@chunks}{0}
\setcounter{subfigure}{0}
\setcounter{lofdepth}{1}
\setcounter{subtable}{0}
\setcounter{lotdepth}{1}
\setcounter{section@level}{0}
}
